{
    "nom_de_projet": "Mon super projet",
    "slug_de_projet":"{{cookiecutter.nom_de_projet.lower().replace(' ','_').replace('-','_')}}",
    "description_de_projet": "Donner une description courte du projet",
    "version_de_python":[3.11, 3.10, 3.9],
    "utiliser_webpack":"y",
    "utiliser_pytest":"y",
    "utiliser_black":"y",
    "utiliser_flake8":"y",
    "utiliser_isort":"y",
	"utiliser_django_crispy_form":"y",
	"utiliser_environ_django":"y",
	"language":["en-us", "fr-fr"]
}

